Covid Seasonality
…
covid.df$study <- as.factor(covid.df$study)

# Using lubridate to clean up dates for plotting
covid.df <- covid.df %>%
  mutate(date.my = as.Date(paste(covid.df$year, covid.df$month, 1, sep = "-")))

# Creating a column that scales each case observation by that study's max
# This is just for plotting, not for analysis
covid.df <- covid.df %>% group_by(study) %>%
  mutate(prop.study.max = cases/max(cases, na.rm = T))

# Split by virus type so these can be analyzed individually. We're only interested in the following four.
(covid.229E <- covid.df[covid.df$virus.type == "229E", ])

## # A tibble: 240 x 16
## # Groups:   study [20]
##    study author   year site    country latitude longitude virus.type month cases
##    <fct> <fct>   <int> <fct>   <fct>      <dbl>     <dbl> <fct>      <int> <int>
##  1 2     Al-Kha~  2016 Kuala ~ Malays~     3.15      102. 229E           1     2
##  2 2     Al-Kha~  2016 Kuala ~ Malays~     3.15      102. 229E           2     2
##  3 2     Al-Kha~  2016 Kuala ~ Malays~     3.15      102. 229E           3     5
##  4 2     Al-Kha~  2016 Kuala ~ Malays~     3.15      102. 229E           4     2
##  5 2     Al-Kha~  2016 Kuala ~ Malays~     3.15      102. 229E           5     3
##  6 2     Al-Kha~  2016 Kuala ~ Malays~     3.15      102. 229E           6     1
##  7 2     Al-Kha~  2016 Kuala ~ Malays~     3.15      102. 229E           7     2
##  8 2     Al-Kha~  2016 Kuala ~ Malays~     3.15      102. 229E           8     1
##  9 2     Al-Kha~  2016 Kuala ~ Malays~     3.15      102. 229E           9     1
## 10 2     Al-Kha~  2016 Kuala ~ Malays~     3.15      102. 229E          10     1
## # ... with 230 more rows, and 6 more variables: hum <int>, templow <dbl>,
## #   temphigh <dbl>, precip <dbl>, date.my <date>, prop.study.max <dbl>

(covid.NL63 <- covid.df[covid.df$virus.type == "NL63", ])

## # A tibble: 276 x 16
## # Groups:   study [23]
##    study author   year site    country latitude longitude virus.type month cases
##    <fct> <fct>   <int> <fct>   <fct>      <dbl>     <dbl> <fct>      <int> <int>
##  1 2     Al-Kha~  2016 Kuala ~ Malays~     3.15      102. NL63           1     3
##  2 2     Al-Kha~  2016 Kuala ~ Malays~     3.15      102. NL63           2     1
##  3 2     Al-Kha~  2016 Kuala ~ Malays~     3.15      102. NL63           3     0
##  4 2     Al-Kha~  2016 Kuala ~ Malays~     3.15      102. NL63           4     1
##  5 2     Al-Kha~  2016 Kuala ~ Malays~     3.15      102. NL63           5     1
##  6 2     Al-Kha~  2016 Kuala ~ Malays~     3.15      102. NL63           6     5
##  7 2     Al-Kha~  2016 Kuala ~ Malays~     3.15      102. NL63           7    11
##  8 2     Al-Kha~  2016 Kuala ~ Malays~     3.15      102. NL63           8     8
##  9 2     Al-Kha~  2016 Kuala ~ Malays~     3.15      102. NL63           9     5
## 10 2     Al-Kha~  2016 Kuala ~ Malays~     3.15      102. NL63          10     7
## # ... with 266 more rows, and 6 more variables: hum <int>, templow <dbl>,
## #   temphigh <dbl>, precip <dbl>, date.my <date>, prop.study.max <dbl>

(covid.OC43 <- covid.df[covid.df$virus.type == "OC43", ])

## # A tibble: 192 x 16
## # Groups:   study [16]
##    study author    year site  country latitude longitude virus.type month cases
##    <fct> <fct>    <int> <fct> <fct>      <dbl>     <dbl> <fct>      <int> <int>
##  1 1     Aldridge  2020 n/k   England     52.4     -1.41 OC43           1    23
##  2 1     Aldridge  2020 n/k   England     52.4     -1.41 OC43           2    20
##  3 1     Aldridge  2020 n/k   England     52.4     -1.41 OC43           3     5
##  4 1     Aldridge  2020 n/k   England     52.4     -1.41 OC43           4    NA
##  5 1     Aldridge  2020 n/k   England     52.4     -1.41 OC43           5    NA
##  6 1     Aldridge  2020 n/k   England     52.4     -1.41 OC43           6    NA
##  7 1     Aldridge  2020 n/k   England     52.4     -1.41 OC43           7    NA
##  8 1     Aldridge  2020 n/k   England     52.4     -1.41 OC43           8    NA
##  9 1     Aldridge  2020 n/k   England     52.4     -1.41 OC43           9    NA
## 10 1     Aldridge  2020 n/k   England     52.4     -1.41 OC43          10    NA
## # ... with 182 more rows, and 6 more variables: hum <int>, templow <dbl>,
## #   temphigh <dbl>, precip <dbl>, date.my <date>, prop.study.max <dbl>

(covid.HKU1 <- covid.df[covid.df$virus.type == "HKU1", ])

## # A tibble: 168 x 16
## # Groups:   study [14]
##    study author    year site   country latitude longitude virus.type month cases
##    <fct> <fct>    <int> <fct>  <fct>      <dbl>     <dbl> <fct>      <int> <int>
##  1 11    Domingu~  2014 Auror~ USA         39.7     -105. HKU1           1    26
##  2 11    Domingu~  2014 Auror~ USA         39.7     -105. HKU1           2    11
##  3 11    Domingu~  2014 Auror~ USA         39.7     -105. HKU1           3    16
##  4 11    Domingu~  2014 Auror~ USA         39.7     -105. HKU1           4     8
##  5 11    Domingu~  2014 Auror~ USA         39.7     -105. HKU1           5     2
##  6 11    Domingu~  2014 Auror~ USA         39.7     -105. HKU1           6     0
##  7 11    Domingu~  2014 Auror~ USA         39.7     -105. HKU1           7     0
##  8 11    Domingu~  2014 Auror~ USA         39.7     -105. HKU1           8     0
##  9 11    Domingu~  2014 Auror~ USA         39.7     -105. HKU1           9     0
## 10 11    Domingu~  2014 Auror~ USA         39.7     -105. HKU1          10     1
## # ... with 158 more rows, and 6 more variables: hum <int>, templow <dbl>,
## #   temphigh <dbl>, precip <dbl>, date.my <date>, prop.study.max <dbl>
…
